<?xml version="1.0" encoding="utf-8"?>
<!-- Generator: Adobe Illustrator 23.0.3, SVG Export Plug-In . SVG Version: 6.00 Build 0)  -->
<svg version="1.1" id="Layer_1" xmlns="http://www.w3.org/2000/svg" xmlns:xlink="http://www.w3.org/1999/xlink" x="0px" y="0px"
	 viewBox="0 0 1921 1081" style="enable-background:new 0 0 1921 1081;" xml:space="preserve">
<style type="text/css">
	.st0{fill:url(#SVGID_1_);stroke:url(#SVGID_2_);stroke-miterlimit:10;}
</style>
<title>SignEatUpp</title>
<linearGradient id="SVGID_1_" gradientUnits="userSpaceOnUse" x1="0" y1="-409.89" x2="1920" y2="-409.89" gradientTransform="matrix(1 0 0 1 0.5 950.39)">
	<stop  offset="0" style="stop-color:#2D999F"/>
	<stop  offset="1" style="stop-color:#1E6361"/>
</linearGradient>
<linearGradient id="SVGID_2_" gradientUnits="userSpaceOnUse" x1="-0.5" y1="-409.89" x2="1920.5" y2="-409.89" gradientTransform="matrix(1 0 0 1 0.5 950.39)">
	<stop  offset="0" style="stop-color:#2D999F"/>
	<stop  offset="1" style="stop-color:#1E6361"/>
</linearGradient>
<rect x="0.5" y="0.5" class="st0" width="1920" height="1080"/>
</svg>
